{
  "shareasale.com": "shareasale",
  "cfjump.com": "cfjump",
  "amazon-adsystem.com": "amazon",
  "google_ads_iframe": "google_iframe",
  "googleadservices.com": "google_ad",
  "googleads": "google_ads",
  "adtechus.com": "adtechus",
  "adnxs.com": "adnxs",
  "s.click.aliexpress.com": "aliexpress",
  "w55c.net": "w55c",
  "lduhtrp.net": "lduhtrp",
  "awltovhc.com": "awltovhc",
  "eb2.3lift.com": "3lift",
  "/click-[0-9]+-[0-9]+": "cj",
  "mb102.com": "mb102",
  "http://trkur[0-9].com": "peerfly",
  "&offerid=[0-9]+.[0-9]+&subid=": "rakuten",
  "hop.clickbank.net": "clickbank",
  "https://t.viprsp.nl/clickout/[0-9]+/[0-9]+/": "vip_response",
  "freshbooks.com": "freshbooks",
  "go2cloud.org": "hasoffers",
  "https://ae01.alicdn.com/": "aliexpress_cdn"
}